[
    "J7908",
    "J7909",
    "J7910",
    "J7911",
    "J7912",
    "J7913",
    "J7914",
    "J7915",
    "J7916",
    "J7917",
    "J7918",
    "J7919",
    "J7920",
    "J7921",
    "J7922",
    "J7923",
    "J7924",
    "J7925",
    "J7926",
    "J7927",
    "J7928",
    "J7929",
    "J7930",
    "J7931",
    "J7932",
    "J7933",
    "J7934",
    "J7935",
    "J7936",
    "J7937",
    "J7938",
    "J7939",
    "J7940",
    "J7941",
    "J7942",
    "J7943",
    "J7944",
    "J7945",
    "J7946",
    "J7947",
    "J7948",
    "J7949",
    "J7950",
    "J7951",
    "J7952",
    "J7953",
    "J7954",
    "J7955",
    "J7956",
    "J7957",
    "J7958",
    "J7959",
    "J7960",
    "J7961",
    "J7962",
    "J7963",
    "J7964",
    "J7965",
    "J7966",
    "J7967",
    "J7968",
    "J7969",
    "J7970",
    "J7971",
    "J7972",
    "J7973",
    "J7974",
    "J7975",
    "J7976",
    "J7977",
    "J7978",
    "J7979",
    "J7980",
    "J7981",
    "J7982",
    "J7983",
    "J7984",
    "J7985",
    "J7986",
    "J7987",
    "J7988",
    "J7989",
    "J7990",
    "J7991",
    "J7992",
    "J7993",
    "J7994",
    "J7995",
    "J7996",
    "J7997",
    "J7998",
    "J7999",
    "J8000",
    "J8001",
    "J8002",
    "J8003",
    "J8004",
    "J8005",
    "J8006",
    "J8007",
    "J8008",
    "J8009",
    "J8010",
    "J8011",
    "J8012",
    "J8013",
    "J8014",
    "J8015",
    "J8016",
    "J8017",
    "J8018",
    "J8019",
    "J8020",
    "J8021",
    "J8022",
    "J8023",
    "J8024",
    "J8025",
    "J8026",
    "J8027",
    "J8028",
    "J8029",
    "J8030",
    "J8031",
    "J8032",
    "J8033",
    "J8034",
    "J8035",
    "J8036",
    "J8037",
    "J8038",
    "J8039",
    "J8040",
    "J8041",
    "J8042",
    "J8043",
    "J8044",
    "J8045",
    "J8046",
    "J8047",
    "J8048",
    "J8049",
    "J8050",
    "J8051",
    "J8052",
    "J8053",
    "J8054",
    "J8055",
    "J8056",
    "J8057",
    "J8058",
    "J8059",
    "J8060",
    "J8061",
    "J8062",
    "J8063",
    "J8064",
    "J8065",
    "J8066",
    "J8067",
    "J8068",
    "J8069",
    "J8070",
    "J8071",
    "J8072",
    "J8073",
    "J8074",
    "J8075",
    "J8076",
    "J8077",
    "J8078",
    "J8079",
    "J8080",
    "J8081",
    "J8082",
    "J8083",
    "J8084",
    "J8085",
    "J8086",
    "J8087",
    "J8088",
    "J8089",
    "J8090",
    "J8091",
    "J8092",
    "J8093",
    "J8094",
    "J8095",
    "J8096",
    "J8097",
    "J8098",
    "J8099",
    "J8100",
    "J8101",
    "J8102",
    "J8103",
    "J8104",
    "J8105",
    "J8106",
    "J8107",
    "J8108",
    "J8109",
    "J8110",
    "J8111",
    "J8112",
    "J8113",
    "J8114",
    "J8115",
    "J8116",
    "J8117",
    "J8118",
    "J8119",
    "J8120",
    "J8121",
    "J8122",
    "J8123",
    "J8124",
    "J8125",
    "J8126",
    "J8127",
    "J8128",
    "J8129",
    "J8130",
    "J8131",
    "J8132",
    "J8133",
    "J8134",
    "J8135",
    "J8136",
    "J8137",
    "J8138",
    "J8139",
    "J8140",
    "J8141",
    "J8142",
    "J8143",
    "J8144",
    "J8145",
    "J8146",
    "J8147",
    "J8148",
    "J8149",
    "J8150",
    "J8151",
    "J8152",
    "J8153",
    "J8154",
    "J8155",
    "J8156",
    "J8157",
    "J8158",
    "J8159",
    "J8160",
    "J8161",
    "J8162",
    "J8163",
    "J8164",
    "J8165",
    "J8166",
    "J8167",
    "J8168",
    "J8169",
    "J8170",
    "J8171",
    "J8172",
    "J8173",
    "J8174",
    "J8175",
    "J8176",
    "J8177",
    "J8178",
    "J8179",
    "J8180",
    "J8181",
    "J8182",
    "J8183",
    "J8184",
    "J8185",
    "J8186",
    "J8187",
    "J8188",
    "J8189",
    "J8190",
    "J8191",
    "J8192",
    "J8193",
    "J8194",
    "J8195",
    "J8196",
    "J8197",
    "J8198",
    "J8199",
    "J8200",
    "J8201",
    "J8202",
    "J8203",
    "J8204",
    "J8205",
    "J8206",
    "J8207",
    "J8208",
    "J8209",
    "J8210",
    "J8211",
    "J8212",
    "J8213",
    "J8214",
    "J8215",
    "J8216",
    "J8217",
    "J8218",
    "J8219",
    "J8220",
    "J8221",
    "J8222",
    "J8223",
    "J8224",
    "J8225",
    "J8226",
    "J8227",
    "J8228",
    "J8229",
    "J8230",
    "J8231",
    "J8232",
    "J8233",
    "J8234",
    "J8235",
    "J8236",
    "J8237",
    "J8238",
    "J8239",
    "J8240",
    "J8241",
    "J8242",
    "J8243",
    "J8244",
    "J8245",
    "J8246",
    "J8247",
    "J8248",
    "J8249",
    "J8250",
    "J8251",
    "J8252",
    "J8253",
    "J8254",
    "J8255",
    "J8256",
    "J8257",
    "J8258",
    "J8259",
    "J8260",
    "J8261",
    "J8262",
    "J8263",
    "J8264",
    "J8265",
    "J8266",
    "J8267",
    "J8268",
    "J8269",
    "J8270",
    "J8271",
    "J8272",
    "J8273",
    "J8274",
    "J8275",
    "J8276",
    "J8277",
    "J8278",
    "J8279",
    "J8280",
    "J8281",
    "J8282",
    "J8283",
    "J8284",
    "J8285",
    "J8286",
    "J8287",
    "J8288",
    "J8289",
    "J8290",
    "J8291",
    "J8292",
    "J8293",
    "J8294",
    "J8295",
    "J8296",
    "J8297",
    "J8298",
    "J8299",
    "J8300",
    "J8301",
    "J8302",
    "J8303",
    "J8304",
    "J8305",
    "J8306",
    "J8307",
    "J8308",
    "J8309",
    "J8310",
    "J8311",
    "J8312",
    "J8313",
    "J8314",
    "J8315",
    "J8316",
    "J8317",
    "J8318",
    "J8319",
    "J8320",
    "J8321",
    "J8322",
    "J8323",
    "J8324",
    "J8325",
    "J8326",
    "J8327",
    "J8328",
    "J8329",
    "J8330",
    "J8331",
    "J8332",
    "J8333",
    "J8334",
    "J8335",
    "J8336",
    "J8337",
    "J8338",
    "J8339",
    "J8340",
    "J8341",
    "J8342",
    "J8343",
    "J8344",
    "J8345",
    "J8346",
    "J8347",
    "J8348",
    "J8349",
    "J8350",
    "J8351",
    "J8352",
    "J8353",
    "J8354",
    "J8355",
    "J8356",
    "J8357",
    "J8358",
    "J8359",
    "J8360",
    "J8361",
    "J8362",
    "J8363",
    "J8364",
    "J8365",
    "J8366",
    "J8367",
    "J8368",
    "J8369",
    "J8370",
    "J8371",
    "J8372",
    "J8373",
    "J8374",
    "J8375",
    "J8376",
    "J8377",
    "J8378",
    "J8379",
    "J8380",
    "J8381",
    "J8382",
    "J8383",
    "J8384",
    "J8385",
    "J8386",
    "J8387",
    "J8388",
    "J8389",
    "J8390",
    "J8391",
    "J8392",
    "J8393",
    "J8394",
    "J8395",
    "J8396",
    "J8397",
    "J8398",
    "J8399",
    "J8400",
    "J8401",
    "J8402",
    "J8403",
    "J8404",
    "J8405",
    "J8406",
    "J8407",
    "J8408",
    "J8409",
    "J8410",
    "J8411",
    "J8412",
    "J8413",
    "J8414",
    "J8415",
    "J8416",
    "J8417",
    "J8418",
    "J8419",
    "J8420",
    "J8421",
    "J8422",
    "J8423",
    "J8424",
    "J8425",
    "J8426",
    "J8427",
    "J8428",
    "J8429",
    "J8430",
    "J8431",
    "J8432",
    "J8433",
    "J8434",
    "J8435",
    "J8436",
    "J8437",
    "J8438",
    "J8439",
    "J8440",
    "J8441",
    "J8442",
    "J8443",
    "J8444",
    "J8445",
    "J8446",
    "J8447",
    "J8448",
    "J8449",
    "J8450",
    "J8451",
    "J8452",
    "J8453",
    "J8454",
    "J8455",
    "J8456",
    "J8457",
    "J8458",
    "J8459",
    "J8460",
    "J8461",
    "J8462",
    "J8463",
    "J8464",
    "J8465",
    "J8466",
    "J8467",
    "J8468",
    "J8469",
    "J8470",
    "J8471",
    "J8472",
    "J8473",
    "J8474",
    "J8475",
    "J8476",
    "J8477",
    "J8478",
    "J8479",
    "J8480",
    "J8481",
    "J8482",
    "J8483",
    "J8484",
    "J8485",
    "J8486",
    "J8487",
    "J8488",
    "J8489",
    "J8490",
    "J8491",
    "J8492",
    "J8493",
    "J8494",
    "J8495",
    "J8496",
    "J8497",
    "J8498",
    "J8499",
    "J8500",
    "J8501",
    "J8502",
    "J8503",
    "J8504",
    "J8505",
    "J8506",
    "J8507",
    "J8508",
    "J8509",
    "J8510",
    "J8511",
    "J8512",
    "J8513",
    "J8514",
    "J8515",
    "J8516",
    "J8517",
    "J8518",
    "J8519",
    "J8520",
    "J8521",
    "J8522",
    "J8523",
    "J8524",
    "J8525",
    "J8526",
    "J8527",
    "J8528",
    "J8529",
    "J8530",
    "J8531",
    "J8532",
    "J8533",
    "J8534",
    "J8535",
    "J8536",
    "J8537",
    "J8538",
    "J8539",
    "J8540",
    "J8541",
    "J8542",
    "J8543",
    "J8544",
    "J8545",
    "J8546",
    "J8547",
    "J8548",
    "J8549",
    "J8550",
    "J8551",
    "J8552",
    "J8553",
    "J8554",
    "J8555",
    "J8556",
    "J8557",
    "J8558",
    "J8559",
    "J8560",
    "J8561",
    "J8562",
    "J8563",
    "J8564",
    "J8565",
    "J8566",
    "J8567",
    "J8568",
    "J8569",
    "J8570",
    "J8571",
    "J8572",
    "J8573",
    "J8574",
    "J8575",
    "J8576",
    "J8577",
    "J8578",
    "J8579",
    "J8580",
    "J8581",
    "J8582",
    "J8583",
    "J8584",
    "J8585",
    "J8586",
    "J8587",
    "J8588",
    "J8589",
    "J8590",
    "J8591",
    "J8592",
    "J8593",
    "J8594",
    "J8595",
    "J8596",
    "J8597",
    "J8598",
    "J8599",
    "J8600",
    "J8601",
    "J8602",
    "J8603",
    "J8604",
    "J8605",
    "J8606",
    "J8607",
    "J8608",
    "J8609",
    "J8610",
    "J8611",
    "J8612",
    "J8613",
    "J8614",
    "J8615",
    "J8616",
    "J8617",
    "J8618",
    "J8619",
    "J8620",
    "J8621",
    "J8622",
    "J8623",
    "J8624",
    "J8625",
    "J8626",
    "J8627",
    "J8628",
    "J8629",
    "J8630",
    "J8631",
    "J8632",
    "J8633",
    "J8634",
    "J8635",
    "J8636",
    "J8637",
    "J8638",
    "J8639",
    "J8640",
    "J8641",
    "J8642",
    "J8643",
    "J8644",
    "J8645",
    "J8646",
    "J8647",
    "J8648",
    "J8649",
    "J8650",
    "J8651",
    "J8652",
    "J8653",
    "J8654",
    "J8655",
    "J8656",
    "J8657",
    "J8658",
    "J8659",
    "J8660",
    "J8661",
    "J8662",
    "J8663",
    "J8664",
    "J8665",
    "J8666",
    "J8667",
    "J8668",
    "J8669",
    "J8670",
    "J8671",
    "J8672",
    "J8673",
    "J8674",
    "J8675",
    "J8676",
    "J8677",
    "J8678",
    "J8679",
    "J8680",
    "J8681",
    "J8682",
    "J8683",
    "J8684",
    "J8685",
    "J8686",
    "J8687",
    "J8688",
    "J8689",
    "J8690",
    "J8691",
    "J8692",
    "J8693",
    "J8694",
    "J8695",
    "J8696",
    "J8697",
    "J8698",
    "J8699",
    "J8700",
    "J8701",
    "J8702",
    "J8703",
    "J8704",
    "J8705",
    "J8706",
    "J8707",
    "J8708",
    "J8709",
    "J8710",
    "J8711",
    "J8712",
    "J8713",
    "J8714",
    "J8715",
    "J8716",
    "J8717",
    "J8718",
    "J8719",
    "J8720",
    "J8721",
    "J8722",
    "J8723",
    "J8724",
    "J8725",
    "J8726",
    "J8727",
    "J8728",
    "J8729",
    "J8730",
    "J8731",
    "J8732",
    "J8733",
    "J8734",
    "J8735",
    "J8736",
    "J8737",
    "J8738",
    "J8739",
    "J8740",
    "J8741",
    "J8742",
    "J8743",
    "J8744",
    "J8745",
    "J8746",
    "J8747",
    "J8748",
    "J8749",
    "J8750",
    "J8751",
    "J8752",
    "J8753",
    "J8754",
    "J8755",
    "J8756",
    "J8757",
    "J8758",
    "J8759",
    "J8760",
    "J8761",
    "J8762",
    "J8763",
    "J8764",
    "J8765",
    "J8766",
    "J8767",
    "J8768",
    "J8769",
    "J8770",
    "J8771",
    "J8772",
    "J8773",
    "J8774",
    "J8775",
    "J8776",
    "J8777",
    "J8778",
    "J8779",
    "J8780",
    "J8781",
    "J8782",
    "J8783",
    "J8784",
    "J8785",
    "J8786",
    "J8787",
    "J8788",
    "J8789",
    "J8790",
    "J8791",
    "J8792",
    "J8793",
    "J8794",
    "J8795",
    "J8796",
    "J8797",
    "J8798",
    "J8799",
    "J8800",
    "J8801",
    "J8802",
    "J8803",
    "J8804",
    "J8805",
    "J8806",
    "J8807",
    "J8808",
    "J8809",
    "J8810",
    "J8811",
    "J8812",
    "J8813",
    "J8814",
    "J8815",
    "J8816",
    "J8817",
    "J8818",
    "J8819",
    "J8820",
    "J8821",
    "J8822",
    "J8823",
    "J8824",
    "J8825",
    "J8826",
    "J8827",
    "J8828",
    "J8829",
    "J8830",
    "J8831",
    "J8832",
    "J8833",
    "J8834",
    "J8835",
    "J8836",
    "J8837",
    "J8838",
    "J8839",
    "J8840",
    "J8841",
    "J8842",
    "J8843",
    "J8844",
    "J8845",
    "J8846",
    "J8847",
    "J8848",
    "J8849",
    "J8850",
    "J8851",
    "J8852",
    "J8853",
    "J8854",
    "J8855",
    "J8856",
    "J8857",
    "J8858",
    "J8859",
    "J8860",
    "J8861",
    "J8862",
    "J8863",
    "J8864",
    "J8865",
    "J8866",
    "J8867",
    "J8868",
    "J8869",
    "J8870",
    "J8871",
    "J8872",
    "J8873",
    "J8874",
    "J8875",
    "J8876",
    "J8877",
    "J8878",
    "J8879",
    "J8880",
    "J8881",
    "J8882",
    "J8883",
    "J8884",
    "J8885",
    "J8886",
    "J8887",
    "J8888",
    "J8889",
    "J8890",
    "J8891",
    "J8892",
    "J8893",
    "J8894",
    "J8895",
    "J8896",
    "J8897",
    "J8898",
    "J8899",
    "J8900",
    "J8901",
    "J8902",
    "J8903",
    "J8904",
    "J8905",
    "J8906",
    "J8907",
    "J8908",
    "J8909",
    "J8910",
    "J8911",
    "J8912",
    "J8913",
    "J8914",
    "J8915",
    "J8916",
    "J8917",
    "J8918",
    "J8919",
    "J8920",
    "J8921",
    "J8922",
    "J8923",
    "J8924",
    "J8925",
    "J8926",
    "J8927",
    "J8928",
    "J8929",
    "J8930",
    "J8931",
    "J8932",
    "J8933",
    "J8934",
    "J8935",
    "J8936",
    "J8937",
    "J8938",
    "J8939",
    "J8940",
    "J8941",
    "J8942",
    "J8943",
    "J8944",
    "J8945",
    "J8946",
    "J8947",
    "J8948",
    "J8949",
    "J8950",
    "J8951",
    "J8952",
    "J8953",
    "J8954",
    "J8955",
    "J8956",
    "J8957",
    "J8958",
    "J8959",
    "J8960",
    "J8961",
    "J8962",
    "J8963",
    "J8964",
    "J8965",
    "J8966",
    "J8967",
    "J8968",
    "J8969",
    "J8970",
    "J8971",
    "J8972",
    "J8973",
    "J8974",
    "J8975",
    "J8976",
    "J8977",
    "J8978",
    "J8979",
    "J8980",
    "J8981",
    "J8982",
    "J8983",
    "J8984",
    "J8985",
    "J8986",
    "J8987",
    "J8988",
    "J8989",
    "J8990",
    "J8991",
    "J8992",
    "J8993",
    "J8994",
    "J8995",
    "J8996",
    "J8997",
    "J8998",
    "J8999",
    "J9000",
    "J9001",
    "J9002",
    "J9003",
    "J9004",
    "J9005",
    "J9006",
    "J9007",
    "J9008",
    "J9009",
    "J9010",
    "J9011",
    "J9012",
    "J9013",
    "J9014",
    "J9015",
    "J9016",
    "J9017",
    "J9018",
    "J9019",
    "J9020",
    "J9021",
    "J9022",
    "J9023",
    "J9024",
    "J9025",
    "J9026",
    "J9027",
    "J9028",
    "J9029",
    "J9030",
    "J9031",
    "J9032",
    "J9033",
    "J9034",
    "J9035",
    "J9036",
    "J9037",
    "J9038",
    "J9039",
    "J9040",
    "J9041",
    "J9042",
    "J9043",
    "J9044",
    "J9045",
    "J9046",
    "J9047",
    "J9048",
    "J9049",
    "J9050",
    "J9051",
    "J9052",
    "J9053",
    "J9054",
    "J9055",
    "J9056",
    "J9057",
    "J9058",
    "J9059",
    "J9060",
    "J9061",
    "J9062",
    "J9063",
    "J9064",
    "J9065",
    "J9066",
    "J9067",
    "J9068",
    "J9069",
    "J9070",
    "J9071",
    "J9072",
    "J9073",
    "J9074",
    "J9075",
    "J9076",
    "J9077",
    "J9078",
    "J9079",
    "J9080",
    "J9081",
    "J9082",
    "J9083",
    "J9084",
    "J9085",
    "J9086",
    "J9087",
    "J9088",
    "J9089",
    "J9090",
    "J9091",
    "J9092",
    "J9093",
    "J9094",
    "J9095",
    "J9096",
    "J9097",
    "J9098",
    "J9099",
    "J9100",
    "J9101",
    "J9102",
    "J9103",
    "J9104",
    "J9105",
    "J9106",
    "J9107",
    "J9108",
    "J9109",
    "J9110",
    "J9111",
    "J9112",
    "J9113",
    "J9114",
    "J9115",
    "J9116",
    "J9117",
    "J9118",
    "J9119",
    "J9120",
    "J9121",
    "J9122",
    "J9123",
    "J9124",
    "J9125",
    "J9126",
    "J9127",
    "J9128",
    "J9129",
    "J9130",
    "J9131",
    "J9132",
    "J9133",
    "J9134",
    "J9135",
    "J9136",
    "J9137",
    "J9138",
    "J9139",
    "J9140",
    "J9141",
    "J9142",
    "J9143",
    "J9144",
    "J9145",
    "J9146",
    "J9147",
    "J9148",
    "J9149",
    "J9150",
    "J9151",
    "J9152",
    "J9153",
    "J9154",
    "J9155",
    "J9156",
    "J9157",
    "J9158",
    "J9159",
    "J9160",
    "J9161",
    "J9162",
    "J9163",
    "J9164",
    "J9165",
    "J9166",
    "J9167",
    "J9168",
    "J9169",
    "J9170",
    "J9171",
    "J9172",
    "J9173",
    "J9174",
    "J9175",
    "J9176",
    "J9177",
    "J9178",
    "J9179",
    "J9180",
    "J9181",
    "J9182",
    "J9183",
    "J9184",
    "J9185",
    "J9186",
    "J9187",
    "J9188",
    "J9189",
    "J9190",
    "J9191",
    "J9192",
    "J9193",
    "J9194",
    "J9195",
    "J9196",
    "J9197",
    "J9198",
    "J9199",
    "J9200",
    "J9201",
    "J9202",
    "J9203",
    "J9204",
    "J9205",
    "J9206",
    "J9207",
    "J9208",
    "J9209",
    "J9210",
    "J9211",
    "J9212",
    "J9213",
    "J9214",
    "J9215",
    "J9216",
    "J9217",
    "J9218",
    "J9219",
    "J9220",
    "J9221",
    "J9222",
    "J9223",
    "J9224",
    "J9225",
    "J9226",
    "J9227",
    "J9228",
    "J9229",
    "J9230",
    "J9231",
    "J9232",
    "J9233",
    "J9234",
    "J9235",
    "J9236",
    "J9237",
    "J9238",
    "J9239",
    "J9240",
    "J9241",
    "J9242",
    "J9243",
    "J9244",
    "J9245",
    "J9246",
    "J9247",
    "J9248",
    "J9249",
    "J9250",
    "J9251",
    "J9252",
    "J9253",
    "J9254",
    "J9255",
    "J9256",
    "J9257",
    "J9258",
    "J9259",
    "J9260",
    "J9261",
    "J9262",
    "J9263",
    "J9264",
    "J9265",
    "J9266",
    "J9267",
    "J9268",
    "J9269",
    "J9270",
    "J9271",
    "J9272",
    "J9273",
    "J9274",
    "J9275",
    "J9276",
    "J9277",
    "J9278",
    "J9279",
    "J9280",
    "J9281",
    "J9282",
    "J9283",
    "J9284",
    "J9285",
    "J9286",
    "J9287",
    "J9288",
    "J9289",
    "J9290"
]