[
    "64304",
    "63805",
    "63750",
    "63144",
    "62939",
    "62779",
    "62759",
    "62608",
    "62401",
    "62101",
    "69133",
    "69132",
    "69131",
    "69088",
    "69085",
    "69037",
    "69035",
    "69012",
    "69000",
    "68958",
    "68917",
    "68890",
    "68882",
    "68880",
    "68879",
    "68864",
    "68862",
    "68845",
    "68844",
    "68833",
    "68823",
    "68809",
    "68807",
    "68804",
    "68760",
    "68755",
    "68743",
    "68707",
    "68699",
    "68687",
    "68669",
    "68650",
    "68649",
    "68640",
    "68613",
    "68598",
    "68541",
    "68533",
    "68498",
    "68453",
    "68444",
    "68416",
    "68403",
    "68352",
    "68341",
    "68340",
    "68336",
    "68330",
    "68131",
    "68125",
    "68043",
    "68038",
    "67984",
    "67983",
    "67982",
    "67952",
    "67910",
    "67907",
    "67637",
    "67415",
    "67414",
    "67406",
    "67403",
    "67402",
    "67386",
    "67378",
    "67330",
    "67322",
    "67288",
    "67276",
    "67270",
    "67262",
    "67261",
    "67247",
    "67227",
    "67191",
    "67148",
    "67143",
    "67141",
    "67127",
    "67098",
    "67086",
    "67062",
    "67004",
    "66960",
    "66809",
    "66804",
    "66750",
    "66739",
    "66688",
    "66682",
    "66664",
    "66651",
    "66540",
    "66510",
    "66488",
    "66484",
    "66458",
    "66409",
    "66300",
    "66289",
    "66212",
    "66188",
    "66165",
    "66139",
    "66111",
    "66098",
    "66086",
    "66057",
    "66045",
    "66005",
    "65998",
    "65995",
    "65974",
    "65969",
    "65961",
    "65960",
    "65957",
    "65924",
    "65902",
    "65872",
    "65829",
    "65817",
    "65764",
    "65748",
    "65704",
    "65700",
    "65683",
    "65671",
    "65660",
    "65644",
    "65565",
    "65529",
    "65503",
    "65493",
    "65463",
    "65449",
    "65403",
    "65374",
    "65373",
    "65262",
    "65213",
    "65206",
    "65183",
    "65131",
    "65067",
    "65063",
    "65034",
    "64994",
    "64992",
    "64977",
    "64976",
    "64975",
    "64951",
    "64946",
    "64899",
    "64855",
    "64854",
    "64845",
    "64822",
    "64805",
    "64775",
    "64771",
    "64747",
    "64726",
    "64639",
    "64537",
    "64507",
    "64407",
    "64250",
    "64237",
    "64236",
    "64232",
    "64063",
    "63941",
    "63909",
    "63873",
    "63616",
    "63610",
    "63350",
    "63310",
    "63252",
    "69120",
    "68632",
    "68345",
    "68196",
    "67987",
    "67892",
    "67408",
    "67327",
    "67012",
    "66909",
    "66901",
    "66801",
    "66557",
    "66546",
    "66438",
    "66025",
    "65956",
    "65905",
    "65869",
    "65808",
    "65392",
    "65050",
    "65032",
    "64736",
    "64204",
    "64147",
    "64059",
    "63646",
    "63619",
    "63460",
    "63215",
    "69160",
    "68529",
    "68454",
    "67785",
    "67769",
    "67118",
    "66656",
    "66429",
    "65949",
    "65781",
    "65290",
    "69043",
    "68740",
    "68575",
    "68564",
    "68538",
    "68455",
    "68273",
    "68216",
    "67879",
    "67725",
    "67267",
    "66935",
    "66400",
    "66326",
    "66177",
    "66049",
    "65948",
    "65655",
    "65223",
    "65158",
    "65129",
    "65065",
    "65013",
    "64884",
    "64423",
    "64276",
    "64228",
    "64117",
    "63737",
    "63597",
    "63508",
    "63119",
    "62985",
    "62961",
    "62957",
    "62908",
    "62629",
    "62565",
    "62520",
    "62508",
    "62160",
    "62107",
    "61789",
    "61496",
    "61483",
    "61393",
    "61198",
    "61091",
    "60980",
    "60734",
    "60526",
    "60494",
    "60487",
    "60468",
    "60229",
    "60126",
    "30028",
    "29972",
    "29337",
    "63763",
    "63553",
    "63469",
    "63393",
    "63381",
    "63372",
    "63355",
    "63255",
    "63179",
    "63043",
    "62973",
    "62780",
    "62456",
    "69171",
    "69040",
    "68748",
    "68723",
    "68526",
    "68487",
    "68380",
    "68187",
    "68077",
    "68071",
    "67663",
    "67635",
    "67584",
    "67555",
    "67390",
    "67377",
    "67329",
    "67188",
    "67079",
    "66998",
    "66908",
    "66387",
    "66376",
    "66283",
    "66274",
    "66210",
    "66173",
    "66096",
    "66064",
    "66026",
    "65878",
    "65616",
    "65321",
    "65291",
    "64920",
    "64794",
    "64667",
    "64666",
    "64149",
    "63359",
    "63273",
    "63022",
    "62855",
    "62643",
    "62493",
    "62313",
    "62006",
    "61914",
    "61528",
    "61383",
    "61325",
    "60899",
    "60393",
    "60305",
    "60223",
    "60138",
    "60044",
    "30125",
    "30032",
    "29945",
    "29805",
    "29482",
    "29378",
    "29339",
    "29061",
    "28504",
    "28429",
    "28425",
    "28412",
    "28249",
    "27823",
    "28509",
    "28257",
    "28256",
    "27819",
    "27790",
    "27788",
    "27785",
    "65263",
    "62646",
    "62579",
    "62371",
    "62280",
    "61904",
    "61864",
    "61224",
    "60999",
    "60911",
    "60907",
    "60872",
    "60869",
    "60823",
    "60694",
    "60435",
    "66132",
    "65989",
    "68856",
    "68850",
    "68662",
    "68610",
    "68609",
    "68523",
    "68372",
    "68049",
    "67918",
    "67905",
    "67586",
    "67544",
    "67446",
    "67411",
    "67380",
    "67282",
    "67250",
    "67164",
    "68865",
    "68643",
    "68608",
    "68205",
    "68150",
    "67912",
    "67590",
    "67517",
    "67091",
    "66401",
    "66356",
    "66335",
    "66154",
    "66066",
    "65935",
    "65833",
    "65654",
    "64907",
    "64586",
    "64113",
    "63998",
    "63511",
    "63028",
    "62796",
    "62481",
    "61423",
    "61274",
    "60843",
    "60575",
    "60558",
    "60437",
    "30025",
    "29453",
    "29032",
    "62212",
    "62144",
    "61498",
    "60016",
    "60004",
    "29999",
    "29923",
    "29494",
    "28911",
    "28389",
    "28303",
    "28299",
    "28229",
    "28175",
    "69161",
    "69122",
    "68873",
    "68554",
    "67608",
    "66952",
    "66278",
    "66243",
    "66242",
    "65603",
    "65247",
    "64953",
    "64926",
    "64809",
    "64615",
    "64609",
    "64517",
    "64441",
    "62956",
    "62671",
    "62451",
    "62282",
    "62167",
    "62112",
    "62072",
    "62048",
    "62024",
    "61801",
    "61722",
    "61714",
    "61653",
    "61631",
    "61608",
    "61605",
    "61577",
    "29563",
    "28697",
    "28667",
    "68831",
    "68002",
    "68001",
    "67788",
    "67778",
    "67731",
    "67664",
    "67636",
    "67623",
    "66979",
    "66748",
    "66424",
    "65886",
    "65658",
    "65419",
    "65104",
    "64634",
    "64008",
    "63879",
    "63640",
    "63366",
    "63254",
    "63108",
    "62773",
    "62635",
    "62179",
    "62163",
    "62157",
    "69147",
    "69071",
    "68585",
    "68584",
    "68146",
    "67727",
    "66721",
    "66698",
    "66691",
    "60210",
    "30154",
    "29686",
    "29354",
    "29242",
    "28869",
    "28445",
    "28444",
    "69172",
    "69019",
    "68377",
    "67466",
    "66690",
    "66249",
    "66114",
    "65552",
    "64846",
    "64579",
    "63847",
    "63570",
    "63364",
    "62993",
    "62425",
    "62196",
    "62060",
    "61942",
    "61679",
    "61333",
    "60961",
    "60488",
    "60326",
    "60075",
    "29495",
    "28552",
    "64469",
    "62127",
    "62089",
    "60885",
    "60125",
    "29555",
    "69099",
    "68791",
    "68449",
    "68266",
    "68198",
    "68079",
    "68041",
    "67887",
    "67806",
    "67763",
    "67431",
    "67290",
    "67263",
    "67210",
    "67150",
    "67104",
    "67103",
    "67063",
    "66932",
    "66820",
    "66800",
    "66671",
    "66667",
    "66634",
    "66225",
    "66167",
    "65941",
    "65855",
    "65836",
    "65399",
    "65312",
    "64812",
    "64798",
    "64763",
    "64759",
    "64696",
    "64595",
    "64572",
    "64527",
    "64512",
    "64466",
    "64431",
    "64333",
    "64181",
    "64154",
    "64043",
    "64042",
    "61544",
    "61296",
    "61119",
    "61081",
    "61044",
    "61005",
    "60546",
    "60368",
    "60366",
    "64447",
    "64364",
    "63895",
    "63894",
    "63376",
    "62859",
    "62706",
    "62644",
    "62606",
    "62192",
    "61857",
    "61821",
    "61667",
    "61622",
    "61551",
    "61507",
    "61301",
    "61010",
    "61003",
    "60670",
    "60667",
    "60254",
    "29771",
    "28955",
    "28293",
    "28075",
    "27915",
    "65182",
    "68886",
    "68400",
    "68335",
    "68284",
    "67947",
    "67519",
    "67495",
    "67430",
    "67325",
    "66643",
    "66573",
    "66463",
    "66334",
    "66061",
    "66051",
    "65959",
    "65516",
    "65478",
    "65231",
    "64859",
    "64641",
    "64161",
    "63629",
    "63480",
    "63415",
    "62658",
    "62604",
    "62556",
    "62450",
    "62399",
    "62244",
    "62118",
    "61806",
    "61568",
    "61532",
    "61038",
    "61022",
    "60878",
    "60773",
    "60722",
    "60445",
    "60328",
    "60303",
    "60302",
    "60269",
    "60111",
    "60088",
    "60038",
    "60022",
    "30103",
    "30023",
    "29640",
    "29498",
    "29392",
    "28908",
    "28231",
    "28152",
    "28016",
    "60903",
    "30828",
    "30578",
    "30178",
    "29982",
    "29903",
    "29868",
    "29867",
    "29656",
    "29444",
    "29383",
    "68894",
    "68642",
    "68433",
    "68269",
    "68032",
    "67979",
    "67953",
    "67937",
    "67921",
    "67837",
    "67824",
    "67816",
    "67539",
    "67319",
    "67123",
    "66907",
    "66670",
    "66519",
    "66491",
    "66432",
    "66399",
    "66390",
    "66373",
    "65852",
    "65787",
    "65219",
    "65200",
    "65186",
    "65176",
    "65166",
    "65051",
    "64314",
    "64124",
    "64102",
    "64080",
    "63706",
    "63555",
    "63472",
    "63426",
    "63320",
    "63313",
    "63239",
    "63194",
    "63164",
    "63114",
    "63006",
    "62889",
    "62865",
    "62777",
    "62756",
    "62752",
    "62649",
    "62447",
    "62416",
    "62395",
    "62210",
    "62114",
    "62058",
    "61949",
    "61931",
    "61761",
    "61750",
    "61702",
    "61633",
    "61587",
    "61586",
    "61456",
    "61327",
    "61270",
    "61164",
    "61159",
    "61086",
    "61028",
    "60888",
    "60858",
    "60840",
    "60775",
    "60718",
    "60551",
    "60527",
    "60511",
    "60473",
    "60240",
    "60066",
    "30266",
    "29974",
    "29794",
    "29755",
    "29641",
    "29190",
    "28641",
    "28420",
    "28381",
    "28095",
    "27923",
    "27822",
    "27813",
    "69155",
    "69096",
    "68988",
    "68861",
    "68805",
    "68758",
    "68745",
    "68726",
    "68635",
    "68525",
    "68478",
    "68357",
    "68325",
    "68112",
    "67790",
    "67782",
    "67754",
    "67609",
    "67497",
    "67437",
    "67424",
    "67367",
    "67324",
    "67253",
    "67246",
    "67218",
    "67060",
    "67030",
    "66740",
    "66637",
    "66613",
    "66572",
    "66481",
    "66318",
    "66176",
    "66152",
    "66100",
    "66079",
    "65783",
    "65750",
    "65698",
    "65667",
    "65608",
    "65585",
    "65429",
    "65402",
    "65257",
    "65252",
    "65226",
    "65064",
    "64894",
    "64864",
    "64860",
    "64830",
    "64781",
    "64767",
    "64760",
    "64711",
    "64675",
    "64629",
    "64589",
    "64513",
    "64498",
    "64418",
    "64398",
    "64329",
    "64306",
    "64291",
    "64282",
    "64271",
    "64202",
    "64201",
    "64143",
    "64078",
    "63874",
    "63797",
    "63746",
    "63661",
    "63564",
    "63534",
    "63528",
    "63513",
    "63373",
    "63331",
    "63318",
    "63233",
    "63217",
    "63204",
    "63191",
    "63178",
    "63145",
    "63053",
    "63038",
    "62972",
    "62921",
    "62827",
    "62792",
    "62770",
    "62678",
    "62668",
    "62657",
    "62616",
    "62464",
    "62381",
    "62354",
    "62290",
    "62189",
    "62113",
    "62001",
    "61952",
    "61938",
    "61881",
    "61813",
    "61777",
    "61488",
    "61222",
    "61182",
    "61112",
    "61021",
    "60786",
    "60655",
    "60553",
    "60520",
    "60399",
    "60331",
    "60212",
    "29951",
    "29874",
    "29754",
    "29429",
    "29150",
    "67432",
    "63939",
    "63441",
    "63347",
    "63315",
    "63259",
    "62540",
    "62514",
    "62168",
    "61858",
    "61626",
    "61310",
    "29047",
    "29023",
    "29017",
    "28977",
    "28111",
    "27908",
    "27824",
    "65854",
    "65821",
    "65081",
    "65009",
    "64919",
    "64323",
    "64159",
    "63738",
    "63541",
    "63303",
    "68126",
    "67834",
    "67713",
    "67478",
    "67336",
    "67157",
    "67156",
    "66531",
    "66477",
    "66460",
    "66214",
    "66095",
    "65936",
    "65930",
    "65743",
    "65180",
    "65090",
    "65042",
    "64952",
    "64850",
    "64515",
    "64468",
    "64395",
    "64297",
    "64183",
    "63988",
    "63964",
    "63937",
    "63904",
    "63812",
    "63735",
    "63702",
    "63632",
    "63630",
    "63594",
    "63583",
    "63526",
    "63431",
    "63224",
    "63165",
    "62960",
    "62894",
    "62893",
    "62873",
    "62854",
    "62818",
    "62801",
    "62775",
    "62727",
    "62708",
    "62413",
    "62393",
    "62370",
    "62342",
    "62303",
    "62273",
    "62253",
    "62232",
    "62069",
    "61870",
    "61861",
    "61849",
    "61449",
    "61322",
    "61211",
    "61136",
    "61015",
    "60870",
    "60790",
    "60606",
    "60492",
    "60306",
    "60286",
    "60083",
    "29816",
    "29650",
    "29432",
    "29397",
    "29249",
    "28971",
    "28968",
    "28722",
    "28674",
    "27645",
    "60963",
    "60880",
    "60625",
    "60383",
    "60365",
    "60342",
    "29968",
    "29788",
    "29533",
    "29187",
    "29180",
    "29135",
    "29124",
    "28709",
    "28531",
    "68977",
    "68787",
    "68661",
    "68337",
    "68195",
    "67993",
    "67632",
    "66624",
    "66367",
    "65340",
    "65328",
    "64945",
    "64768",
    "64218",
    "64213",
    "64036",
    "63872",
    "63084",
    "62896",
    "62888",
    "62860",
    "62402",
    "62011",
    "61975",
    "61620",
    "61335",
    "61248",
    "61140",
    "61131",
    "60948",
    "60943",
    "60794",
    "60600",
    "60384",
    "60373",
    "60314",
    "68519",
    "68362",
    "67860",
    "67859",
    "67548",
    "67508",
    "67473",
    "66755",
    "66220",
    "65845",
    "65123",
    "64197",
    "64086",
    "63733",
    "63412",
    "63288",
    "63107",
    "63044",
    "62869",
    "62817",
    "62598",
    "62452",
    "62261",
    "62190",
    "62159",
    "62128",
    "62099",
    "61974",
    "61701",
    "61356",
    "61256",
    "61102",
    "61045",
    "60924",
    "60906",
    "60847",
    "60781",
    "60672",
    "60656",
    "60510",
    "60363",
    "60285",
    "60273",
    "60249",
    "60222",
    "60119",
    "60068",
    "60053",
    "30200",
    "29701",
    "29551",
    "29239",
    "29060",
    "28884",
    "28829",
    "28813",
    "28770",
    "28721",
    "64491",
    "64224",
    "63979",
    "63917",
    "63547",
    "63343",
    "63153",
    "63063",
    "62964",
    "62502",
    "62314",
    "62263",
    "62036",
    "61941",
    "61856",
    "61749",
    "61492",
    "61444",
    "61370",
    "61293",
    "61287",
    "61279",
    "61152",
    "60996",
    "60956",
    "60685",
    "60598",
    "60537",
    "60281",
    "60207",
    "60183",
    "60057",
    "30219",
    "29905",
    "29862",
    "29648",
    "29450",
    "29368",
    "29302",
    "29121",
    "28956",
    "28791",
    "28595",
    "28506",
    "28439",
    "28343",
    "68490",
    "68294",
    "67980",
    "67716",
    "67666",
    "67662",
    "67620",
    "67612",
    "67595",
    "67445",
    "67400",
    "67026",
    "66839",
    "66760",
    "66749",
    "66414",
    "66332",
    "66207",
    "65804",
    "65708",
    "65678",
    "65619",
    "65583",
    "64974",
    "64973",
    "64955",
    "64870",
    "64189",
    "63742",
    "63365",
    "63160",
    "62871",
    "62849",
    "62730",
    "62499",
    "62255",
    "61985",
    "61839",
    "61338",
    "61162",
    "61097",
    "60987",
    "60972",
    "60960",
    "60877",
    "60666",
    "60461",
    "60423",
    "60299",
    "30069",
    "29818",
    "28978",
    "69013",
    "68885",
    "68749",
    "68463",
    "68417",
    "68265",
    "68176",
    "68034",
    "68022",
    "67945",
    "67309",
    "67038",
    "66784",
    "65535",
    "65464",
    "65415",
    "65365",
    "65145",
    "64858",
    "64428",
    "64295",
    "63258",
    "63124",
    "63032",
    "63018",
    "62745",
    "62568",
    "61614",
    "61497",
    "61494",
    "65296",
    "61998",
    "61866",
    "61845",
    "61763",
    "61740",
    "61485",
    "61463",
    "61174",
    "61122",
    "60985",
    "60949",
    "60908",
    "60813",
    "60478",
    "60392",
    "60268",
    "60209",
    "60173",
    "60149",
    "60015",
    "60014",
    "29979",
    "29953",
    "29935",
    "29713",
    "69090",
    "69030",
    "68994",
    "68951",
    "68790",
    "68689",
    "68633",
    "68452",
    "68441",
    "68424",
    "67878",
    "67684",
    "67577",
    "67576",
    "67292",
    "67285",
    "66786",
    "66517",
    "66394",
    "66369",
    "66084",
    "65891",
    "65776",
    "65754",
    "65751",
    "65674",
    "65611",
    "65578",
    "65470",
    "65425",
    "65424",
    "65348",
    "65108",
    "64848",
    "64819",
    "64514",
    "64430",
    "64361",
    "64338",
    "64106",
    "64066",
    "63975",
    "63952"
]