[
    "OI1000",
    "OI1001",
    "OI1002",
    "OI1003",
    "OI1004",
    "OI1005",
    "OI1006",
    "OI1007",
    "OI1008",
    "OI1009",
    "OI1010",
    "OI1011",
    "OI1012",
    "OI1013",
    "OI1014",
    "OI1015",
    "OI1016",
    "OI1017",
    "OI1018",
    "OI1019",
    "OI1020",
    "OI1021",
    "OI1022",
    "OI1023",
    "OI1024",
    "OI1025",
    "OI1026",
    "OI1027",
    "OI1028",
    "OI1029",
    "OI1030",
    "OI1031",
    "OI1032",
    "OI1033",
    "OI1034",
    "OI1035",
    "OI1036",
    "OI1037",
    "OI1038",
    "OI1039",
    "OI1040",
    "OI1041",
    "OI1042",
    "OI1043",
    "OI1044",
    "OI1045",
    "OI1046",
    "OI1047",
    "OI1048",
    "OI1049",
    "OI1050",
    "OI1051",
    "OI1052",
    "OI1053",
    "OI1054",
    "OI1055",
    "OI1056",
    "OI1057",
    "OI1058",
    "OI1059",
    "OI1060",
    "OI1061",
    "OI1062",
    "OI1063",
    "OI1064",
    "OI1065",
    "OI1066",
    "OI1067",
    "OI1068",
    "OI1069",
    "OI1070",
    "OI1071",
    "OI1072",
    "OI1073",
    "OI1074",
    "OI1075",
    "OI1076",
    "OI1077",
    "OI1078",
    "OI1079",
    "OI1080",
    "OI1081",
    "OI1082",
    "OI1083",
    "OI1084",
    "OI1085",
    "OI1086",
    "OI1087",
    "OI1088",
    "OI1089",
    "OI1090",
    "OI1091",
    "OI1092",
    "OI1093",
    "OI1094",
    "OI1095",
    "OI1096",
    "OI1097",
    "OI1098",
    "OI1099",
    "OI1100",
    "OI1101",
    "OI1102",
    "OI1103",
    "OI1104",
    "OI1105",
    "OI1106",
    "OI1107",
    "OI1108",
    "OI1109",
    "OI1110",
    "OI1111",
    "OI1112",
    "OI1113",
    "OI1114",
    "OI1115",
    "OI1116",
    "OI1117",
    "OI1118",
    "OI1119",
    "OI1120",
    "OI1121",
    "OI1122",
    "OI1123",
    "OI1124",
    "OI1125",
    "OI1126",
    "OI1127",
    "OI1128",
    "OI1129",
    "OI1130",
    "OI1131",
    "OI1132",
    "OI1133",
    "OI1134",
    "OI1135",
    "OI1136",
    "OI1137",
    "OI1138",
    "OI1139",
    "OI1140"
]